[
    {
        "fName" : "John",
        "lName" : "Doe",
        "age" : 26
    },
    {
        "fName" : "firstname",
        "lName" : "lastname",
        "age" : 26
    },
    {
        "fName" : "firstname",
        "lName" : "lastname",
        "age" : 26
    },
    {
        "fName" : "firstname",
        "lName" : "lastname",
        "age" : 26
    }
]